<?xml version="1.0" encoding="UTF-8" standalone="no"?>
<svg
   xmlns:dc="http://purl.org/dc/elements/1.1/"
   xmlns:cc="http://creativecommons.org/ns#"
   xmlns:rdf="http://www.w3.org/1999/02/22-rdf-syntax-ns#"
   xmlns:svg="http://www.w3.org/2000/svg"
   xmlns="http://www.w3.org/2000/svg"
   height="519.9104"
   width="683.52795"
   id="svg1182"
   xml:space="preserve"
   viewBox="0 0 683.52795 519.9104"
   y="0px"
   x="0px"
   version="1.1"><metadata
   id="metadata1188"><rdf:RDF><cc:Work
       rdf:about=""><dc:format>image/svg+xml</dc:format><dc:type
         rdf:resource="http://purl.org/dc/dcmitype/StillImage" /><dc:title></dc:title></cc:Work></rdf:RDF></metadata><defs
   id="defs1186" />
<style
   id="style1043"
   type="text/css">
	.st0{fill:#969798;stroke:#000000;stroke-width:2.2208;stroke-miterlimit:10;}
	.st1{fill:#FFFFFF;}
</style>
<g
   transform="translate(-67.719519,-47.80498)"
   id="Layer_1">
</g>
<g
   transform="translate(-67.719519,-47.80498)"
   id="Layer_2">
	<g
   id="g1076">
		<g
   id="g1062">
			<path
   id="path1046"
   d="m 145.01,317.73 c 1.38,-2.53 3.78,-4.18 5.95,-5.98 1.12,-0.93 2.18,-1.92 3.03,-3.1 1.04,-1.43 1.85,-3 2.71,-4.54 0.32,-0.57 -2.81,2.3 -3.91,3.68 -0.93,1.16 -2.05,2.13 -3.21,3.05 -2.28,1.8 -4.97,7.63 -4.57,6.89 z" />
			<path
   id="path1048"
   d="m 104.12,353.46 c 0.49,1.24 1.09,2.43 1.85,3.53 0.73,1.05 1.66,2.17 2.8,2.8 0.61,0.35 -4.89,-6.94 -4.65,-6.33 z" />
			<path
   id="path1050"
   d="m 112.65,355.17 c 0.61,1.34 1.08,1.81 1.49,4.39 0.42,-1.58 -0.3,-3.37 -0.98,-4.78 -0.71,-1.47 -1.62,-2.88 -2.75,-4.06 -0.4,-0.4 1.62,3.11 2.24,4.45 z" />
			<path
   id="path1052"
   d="m 132.72,292.85 c -1.75,0.78 -3.59,1.33 -5.42,1.91 -0.94,0.29 -1.88,0.59 -2.82,0.91 -0.94,0.33 -2.13,0.63 -2.9,1.28 -0.43,0.36 5.65,-0.74 6.7,-1.07 1.92,-0.59 3.85,-1.18 5.66,-2.05 1.69,-0.82 3.29,-1.93 4.47,-3.41 1.42,-1.77 2.19,-3.94 2.6,-6.15 0.09,-0.51 -2.29,3.92 -3.8,5.54 -1.25,1.35 -2.83,2.3 -4.49,3.04 z" />
			<path
   id="path1054"
   d="m 152.43,260.53 c -5.97,3.93 -17.02,13.28 -16.54,13.04 6.44,-3.19 17.08,-13.4 16.54,-13.04 z" />
			<path
   id="path1056"
   d="m 488.53,121.83 c -8.25,2.86 -16.29,6.44 -24.4,9.69 -8.03,3.23 -16.17,6.1 -24.29,9.09 -16.48,6.05 -32.59,12.79 -48.5,20.21 -16.28,7.59 -32.48,15.36 -48.5,23.5 -14.96,7.6 -30.56,14.89 -44.4,24.44 -14.05,9.7 -27.27,22.17 -37.37,35.94 -0.2,0.28 -0.32,0.57 -0.37,0.86 -1.52,1.96 -2.94,3.99 -4.09,6.16 -2.56,4.85 -3.1,10.37 -3.49,15.77 -0.44,6.13 -0.65,12.3 -1.65,18.38 -1.04,6.3 -3.05,12.46 -5.17,18.47 -3.95,11.16 -8.29,22.02 -15.62,31.42 -6.68,8.57 -13.81,16.44 -18.41,26.4 -0.53,1.14 -1.04,2.28 -1.55,3.43 -2.91,-0.95 -5.92,-1.52 -8.97,-1.75 -3.52,-0.27 -7.12,-0.17 -10.54,0.75 -0.65,0.18 13.09,-0.04 19.16,1.78 -0.58,1.3 -1.15,2.59 -1.73,3.88 -1.21,-0.25 -2.41,-0.56 -3.61,-0.82 -0.47,-0.1 1.63,1.17 3.19,1.75 -0.59,1.31 -1.19,2.62 -1.81,3.91 -8.62,1.19 -16.38,-2.55 -15.77,-2.12 4.39,3.02 9.94,3.33 15.21,3.29 -0.41,0.84 -0.84,1.68 -1.28,2.52 -1.54,-0.06 -3.12,0.03 -4.62,0 -2.49,-0.06 -8.29,-0.57 -7.59,-0.24 2.28,1.1 4.82,1.45 7.33,1.51 1.23,0.03 2.45,0 3.68,-0.01 0.18,0 0.36,0.01 0.53,0.01 -0.1,0.19 -0.2,0.39 -0.31,0.58 -1.92,3.47 -3.88,6.94 -5.29,10.62 -2.76,-3.58 -8.37,-3.86 -12.3,-2.14 -5.12,2.25 -7.36,7.91 -8.6,13.01 -0.01,-0.01 -0.01,-0.02 -0.02,-0.03 -0.28,-0.46 -0.56,-0.91 -0.84,-1.36 -0.01,-0.02 -0.22,-0.36 -0.24,-0.39 -0.07,-0.12 -0.14,-0.23 -0.21,-0.35 -0.43,-0.75 -0.83,-1.51 -1.12,-2.32 -0.03,-0.1 -0.07,-0.19 -0.1,-0.29 0,-0.01 -0.12,-0.46 -0.13,-0.47 -0.1,-0.43 -0.17,-0.87 -0.22,-1.3 -0.13,-1.08 -0.1,-2.16 -0.03,-3.25 0.28,-4.68 1.53,-9.27 2.83,-13.76 1.3,-4.48 2.84,-8.88 4.83,-13.1 1.88,-4 4.19,-7.7 6.65,-11.36 2.02,-3.01 4.04,-6.07 5.71,-9.31 0.59,-0.85 1.16,-1.71 1.7,-2.6 2.38,-3.93 4.84,-9.28 3,-13.85 0.32,0.15 0.63,0.28 0.93,0.4 1.47,0.61 3.01,1.02 4.57,1.31 3.04,0.55 6.13,0.64 9.2,0.26 1.12,-0.14 -6.39,0.11 -12.85,-3.28 -0.9,-0.47 -1.83,-0.89 -2.75,-1.31 1.88,-0.41 3.73,-0.92 5.54,-1.56 3.08,-1.09 5.98,-2.56 8.68,-4.37 -2.19,0.61 -14.96,3.9 -21.72,4.47 -0.82,0.07 -1.63,0.2 -2.44,0.37 -0.8,0.17 -4.22,0.86 -5.13,1.05 -3.51,0.76 -6.83,2.3 -10.1,3.75 -1.61,0.71 -3.23,1.42 -4.87,2.06 -0.72,0.2 -1.44,0.4 -2.15,0.6 -0.14,0.04 -0.27,0.08 -0.41,0.12 1.85,-1.8 3.62,-3.69 5.31,-5.64 -1.33,0.87 -2.66,1.72 -4.02,2.51 -1.29,0.76 -6.35,4.31 -7.61,5.33 -0.61,0.28 -1.21,0.59 -1.79,0.94 -1.76,1.06 -3.37,2.31 -5,3.53 -4.11,2.15 -8.25,3.79 -11.29,7.59 -0.52,0.46 -1.02,0.94 -1.5,1.44 -1.78,1.85 -3.31,3.9 -5.18,5.62 -2.03,1.87 -4.26,3.5 -6.35,5.31 -4,3.46 -7.18,7.82 -10.52,11.89 -2.02,2.46 -3.97,4.78 -6.12,6.95 -2.59,2.22 -5.18,4.63 -8.01,6.54 -0.86,0.54 -1.74,1.05 -2.69,1.52 -2.32,1.14 -4.78,1.94 -7.33,1.55 -0.45,-0.07 -0.89,-0.2 -1.33,-0.36 0.59,-1.94 1.04,-4 0.96,-6.03 -0.08,-2.05 -2.18,-6.01 -2.27,-6.28 0.24,-0.85 0.44,-1.72 0.62,-2.58 0.03,0.25 0.1,0.49 0.18,0.72 0.23,0.64 0.61,1.24 1,1.79 0.43,0.6 0.91,1.16 1.4,1.71 0.47,0.52 2.19,1.45 2.19,1.45 0,0 -3.59,-3.15 -4.15,-7.84 -0.01,-0.12 0.02,-0.25 0.02,-0.37 0.05,-0.17 0.1,-0.34 0.16,-0.51 0.61,1.02 2.48,3.37 2.48,3.37 0,0 -1.2,-3.3 -1.99,-4.56 0.14,-0.29 0.29,-0.58 0.46,-0.87 0.18,-0.3 0.37,-0.6 0.56,-0.89 2.5,1.91 5.36,7.37 5.27,7.02 -0.42,-1.68 -1.04,-3.31 -1.94,-4.79 -0.72,-1.19 -1.57,-2.35 -2.57,-3.35 1.37,-1.92 2.89,-3.73 4.08,-5.77 0.59,-1 1.01,-2.05 1.38,-3.11 0.69,1.6 1.3,3.25 2.19,4.76 0.92,1.57 2.28,3.19 4.01,3.88 0.6,0.24 -3.32,-2.81 -5.46,-9.37 -0.06,-0.19 0.35,-2.59 0.84,-3.75 1.4,-3.28 3.74,-5.81 6.44,-8.09 8.54,-7.2 17.93,-15.39 21.92,-26.11 1.61,-2.63 3.18,-5.28 4.77,-7.93 0.93,-1.54 1.86,-3.08 2.79,-4.61 0.89,-1.48 1.98,-3 2.63,-4.61 0.32,-0.78 -6.6,8.57 -10.05,12.17 -0.24,0.25 -0.34,0.6 -0.51,0.9 -0.65,0.56 -1.31,1.11 -1.98,1.65 0,0 0,0 0,0 -0.05,-0.01 -0.11,0 -0.16,0.02 -0.08,0.02 -0.15,0.05 -0.22,0.11 -0.04,0.04 -0.07,0.08 -0.11,0.11 -0.04,0.05 -0.05,0.12 -0.07,0.18 -2.14,1.64 -13.78,11.56 -16.37,13.3 -2.28,1.53 -4.86,2.46 -6.73,4.52 -1.49,1.63 -2.51,3.63 -3.86,5.39 -3.16,4.12 -7.8,6.39 -11.1,10.5 -6.08,7.57 -12.73,3.88 -13.33,3.94 0.29,-0.5 0.52,-1.06 0.72,-1.59 0.45,-1.18 0.8,-2.39 1.07,-3.61 0.28,-1.25 0.48,-2.51 0.44,-3.79 -0.03,-0.91 -0.19,-1.96 -0.86,-2.63 -0.3,-0.31 -0.66,-0.47 -1.03,-0.54 0.84,-1.16 1.64,-2.34 2.28,-3.62 0.06,-0.11 0.1,-0.22 0.15,-0.33 0.27,0.4 0.57,0.79 0.91,1.14 0.8,0.82 1.72,1.54 2.77,2.02 -2.98,-2.97 -2.98,-4.44 -3.03,-4.55 0.51,-0.87 1.01,-1.74 1.49,-2.63 0.11,-0.2 0.32,-0.61 0.32,-0.61 0.01,0.01 1.83,0.62 4.61,3.2 -0.43,-0.46 -1.95,-2.67 -2.09,-2.84 -0.36,-0.44 -0.78,-0.83 -1.27,-1.11 -0.15,-0.09 -0.3,-0.16 -0.46,-0.23 0.11,-0.23 0.15,-0.5 0.12,-0.74 1.21,-2.41 2.27,-4.84 3.13,-7.44 0.01,-0.04 0.03,-0.08 0.04,-0.12 1.49,2.23 3.91,4.15 6.61,4.3 0.35,0.02 -4,-1.16 -6.12,-5.64 1.32,-3.3 3.16,-5.55 6.07,-8 5.82,-4.89 11.49,-9.94 17.28,-14.86 1.86,-1.58 3.74,-3.21 5.46,-4.97 0.73,-0.64 1.43,-1.3 2.11,-2.01 1.82,-1.91 3.17,-4.18 4.89,-6.16 3.44,-3.99 12.36,-10.51 11.78,-10.14 -4.3,2.79 -9.32,4.72 -12.93,8.48 -0.91,0.95 -1.61,2.05 -2.36,3.11 -0.76,1.08 -1.58,2.12 -2.4,3.16 -0.97,1.24 -2.04,2.4 -3.15,3.51 -0.52,0.33 -1.03,0.65 -1.56,0.95 -3.21,2.77 -6.73,5.27 -9.77,7.88 -3.96,3.4 -7.93,6.78 -11.91,10.16 -2.89,2.45 -4.79,4.91 -6.11,8.47 -1.07,2.88 -2.21,5.63 -3.51,8.33 -0.64,-0.11 -1.24,-0.3 -1.84,-0.53 1.15,-2.13 2.29,-4.31 2.88,-6.64 0.36,-1.43 0.52,-2.94 0.04,-4.37 -0.44,-1.3 -1.43,-2.34 -2.65,-2.94 0.04,-0.12 0.08,-0.25 0.12,-0.37 0,0 0,0 0,0 0.88,-2.14 1.72,-4.33 2.61,-6.52 0.01,0.03 0.01,0.06 0.02,0.08 0.39,0.72 0.84,1.4 1.45,1.96 0.62,0.57 1.38,0.92 2.21,1 0.32,0.03 0.66,-0.21 0.69,-0.55 0.02,-0.34 -0.74,-0.72 -0.84,-0.73 -0.01,0 0,0 -0.01,0 0,0 0,0 0,0 -0.04,-0.01 -0.08,-0.02 -0.11,-0.03 -0.16,-0.05 -0.32,-0.11 -0.47,-0.18 -0.04,-0.02 -0.08,-0.04 -0.12,-0.06 -0.01,0 -0.02,-0.01 -0.03,-0.01 0,0 0,0 0.01,0 -0.06,-0.02 -0.14,-0.08 -0.19,-0.12 -0.14,-0.09 -0.28,-0.2 -0.41,-0.31 -0.03,-0.02 -0.06,-0.05 -0.08,-0.07 -0.01,-0.01 0,0 -0.01,-0.01 0,0 0,0 -0.01,-0.01 -0.06,-0.06 -0.12,-0.12 -0.17,-0.18 -0.11,-0.12 -0.22,-0.25 -0.33,-0.39 -0.1,-0.13 -0.2,-0.27 -0.3,-0.41 -0.05,-0.07 -0.23,-0.37 -0.15,-0.24 -0.02,-0.04 -0.63,-0.99 -0.5,-1.3 0.29,-0.6 0.6,-1.19 0.9,-1.79 0.01,0.18 0.09,0.35 0.24,0.49 0.24,0.21 0.47,0.43 0.71,0.65 l -0.13,-0.12 c 0.53,0.5 1.05,1.01 1.64,1.44 0.27,0.2 0.65,0.15 0.87,-0.09 0.22,-0.23 0.25,-0.62 0.04,-0.87 -0.18,-0.21 -0.39,-0.4 -0.59,-0.6 -0.2,-0.19 -0.4,-0.38 -0.62,-0.55 -0.39,-0.29 -0.78,-0.58 -1.18,-0.86 -0.2,-0.14 -0.48,-0.15 -0.68,-0.03 1.24,-2.33 2.58,-4.62 3.95,-6.87 0.18,0.56 0.42,1.09 0.71,1.59 1.13,1.89 3.16,3.65 5.48,3.64 1.4,0 2.54,-0.72 3.28,-1.89 -4.77,2.88 -8.03,-2.93 -8.34,-4.76 -0.02,-0.13 -0.03,-0.25 -0.04,-0.38 0.28,-0.45 0.86,-1.33 0.88,-1.33 0.29,-0.37 1.11,-1.69 1.23,-1.99 2.67,-3.98 5.84,-7.57 9.3,-10.88 0.56,-0.36 1.13,-0.71 1.72,-1.02 3.64,-2.91 7.41,-5.68 11.17,-8.43 2.9,-2.11 11.82,-9.13 12.57,-10.14 0.53,-0.72 1.02,-1.46 1.49,-2.23 0.57,-0.84 1.06,-1.71 1.46,-2.61 0.83,-1.55 1.7,-3.05 3,-4.3 1.69,-1.63 3.77,-2.75 5.82,-3.86 0.29,-0.16 0.59,-0.32 0.89,-0.48 0.48,-0.61 0.95,-1.24 1.41,-1.87 0.17,-0.24 0.32,-0.48 0.47,-0.73 -1.25,0.88 -2.58,1.59 -4.05,2.22 -2.14,0.93 -4.24,1.8 -5.96,3.42 -1.7,1.61 -3.21,3.53 -4.57,5.43 -0.7,0.98 -1.36,1.99 -2.08,2.95 -0.25,0.33 -0.52,0.65 -0.8,0.97 -0.5,0.22 -1,0.41 -1.51,0.57 -0.11,-0.04 -0.23,-0.07 -0.35,-0.07 -3.72,-0.26 -7.4,0.99 -10.79,2.81 -0.75,0.31 -1.48,0.68 -2.18,1.12 -2.02,1.26 -4.04,2.82 -5.97,4.41 -2.12,1.67 -4.15,3.45 -6.1,5.31 -2.38,2.28 -4.82,4.85 -7.77,6.21 -0.39,0.18 -0.8,0.35 -1.21,0.48 -0.04,0.01 -0.08,0.02 -0.15,0.03 -0.22,0.05 -0.45,0.09 -0.67,0.13 -0.42,0.06 -0.59,0.06 -0.78,0.05 -0.15,-0.01 -0.3,-0.02 -0.45,-0.04 0,0 -0.39,-0.08 -0.42,-0.07 -0.93,-0.25 -1.76,-0.79 -2.51,-1.45 2.9,-2.09 5.56,-5.87 5.45,-9.3 -0.06,-1.91 -1.03,-4.27 -2.71,-4.94 0.12,-0.18 0.22,-0.34 0.31,-0.5 0.3,-0.53 0.6,-1.01 0.91,-1.48 0.61,-0.79 1.22,-1.57 1.83,-2.36 0.22,-0.24 0.44,-0.49 0.67,-0.72 0.07,0.15 0.14,0.3 0.21,0.45 0.29,0.57 2.44,3.4 4.64,4.08 0.29,0.09 -3.31,-2.36 -3.84,-5.5 0.42,-0.38 0.85,-0.76 1.33,-1.15 0.2,-0.16 0.38,-0.34 0.57,-0.5 0.07,0.14 2.55,1.44 2.33,1.13 -0.33,-0.46 -0.68,-0.91 -1.01,-1.37 -0.14,-0.19 -0.3,-0.38 -0.45,-0.57 1.05,-1.04 1.96,-2.17 2.83,-3.44 0.45,-0.66 0.89,-1.3 1.33,-1.92 3.02,6.28 7.19,3.27 6.46,3.25 -0.47,-0.01 -0.96,0.01 -1.42,-0.09 -2.87,-0.67 -3.91,-3.3 -4.2,-4.26 0.38,-0.46 1.27,-1.19 1.31,-1.12 0.72,1.11 3.15,3.11 3.32,2.93 0.16,-0.17 -1.81,-2.5 -2.56,-3.55 -0.05,-0.06 0.63,-0.75 1.1,-1.02 2.82,-1.61 5.87,-2.92 8.77,-4.39 1.89,-0.96 3.83,-1.9 5.76,-2.86 0.51,-0.18 1.02,-0.37 1.53,-0.54 2.4,-0.78 4.76,-1.45 6.95,-2.74 2.33,-1.38 4.38,-3.07 6.8,-4.26 2.58,-1.26 5.31,-2.18 7.96,-3.29 5.62,-2.36 10.36,-6.3 15.34,-9.72 5.25,-3.61 10.98,-6.45 16.57,-9.5 2.81,-1.53 5.72,-2.96 8.46,-4.63 2.5,-0.86 4.93,-1.93 7.25,-3.21 0.12,-0.06 0.22,-0.14 0.34,-0.2 12.78,-5.42 17.75,-16.89 18.23,-17.57 1.5,-2.14 2.5,-4.54 3.43,-6.96 0.42,-1.09 0.86,-2.14 1.36,-3.16 4.77,-6.37 11.12,-11.55 17.7,-16.2 3.28,-2.31 6.61,-4.55 9.97,-6.75 1.83,-1.05 3.68,-2.07 5.57,-3.09 3.5,-1.87 7.07,-3.61 10.54,-5.51 3.85,-2.11 7.6,-4.42 11.29,-6.81 7.28,-4.74 14.27,-9.9 21.16,-15.18 6.83,-5.22 13.66,-10.45 20.19,-16.04 6.62,-5.67 12.99,-11.64 19.14,-17.81 6.29,-6.31 12.41,-12.78 18.46,-19.32 2.54,-2.74 5.27,-5.47 7.3,-8.61 1.45,-2.24 2.77,-4.58 4.12,-6.87 0.72,-0.9 1.45,-1.8 2.17,-2.7 0.06,-0.07 0.09,-0.14 0.12,-0.21 0.1,-0.06 0.21,-0.11 0.32,-0.15 1.21,-0.43 0.63,-2.53 -0.64,-2.2 -1.12,0.3 -1.93,0.99 -2.78,1.76 -1.13,1.02 -2.05,2.1 -2.92,3.35 -1.73,2.48 -3.32,5.1 -5.39,7.31 -3,3.19 -6.19,6.19 -9.31,9.26 -3.14,3.09 -6.19,6.27 -9.31,9.39 -6.15,6.17 -12.42,12.22 -18.92,18.03 -6.48,5.8 -13.25,11.2 -20.14,16.5 -6.87,5.29 -13.78,10.55 -20.92,15.47 -6.94,4.79 -14,9.06 -21.5,12.93 -14.05,7.27 -28.18,15.52 -38.98,27.26 -2.7,2.93 -4.6,6.42 -6.33,9.99 -1.65,3.41 -2.92,6.47 -5.11,9.44 -0.47,0.63 -0.96,1.24 -1.48,1.82 -0.14,0.15 -0.27,0.3 -0.41,0.45 -0.03,0.03 -0.07,0.07 -0.12,0.12 -0.29,0.28 -0.57,0.57 -0.86,0.84 -0.02,0.01 -0.05,0.03 -0.07,0.04 -0.85,0.51 -1.78,1.17 -2.6,1.94 -0.55,0.36 -1.1,0.73 -1.63,1.12 -1.39,1.01 -2.73,2.04 -4.09,3.05 -0.03,0.06 -0.06,0.11 -0.09,0.17 0,0.01 0,0.02 0,0.03 -0.07,0.04 -0.13,0.08 -0.2,0.12 -1.57,0.91 -12.47,6.78 -13.4,7.26 -5.88,3.04 -11.88,6.03 -17.43,9.64 -2.58,1.68 -5.06,3.5 -7.55,5.3 -2.37,1.71 -4.57,3.35 -7.14,4.6 -2.58,1.26 -5.3,2.21 -7.92,3.39 -2.69,1.21 -5.03,2.79 -7.44,4.46 -0.29,0.2 -0.58,0.4 -0.88,0.59 -0.09,0.06 -0.18,0.11 -0.27,0.17 -0.01,0 -0.02,0.01 -0.02,0.01 -0.18,0.06 -0.36,0.14 -0.53,0.25 -0.29,0.18 -0.58,0.35 -0.87,0.52 -0.15,0.07 -0.29,0.15 -0.44,0.22 -0.95,0.44 -1.93,0.8 -2.91,1.13 -0.44,0.29 -0.88,0.58 -1.33,0.86 -2.27,0.89 -4.61,1.64 -6.86,2.44 -4.28,1.53 -8.56,3.21 -12.17,6.04 -3.21,2.52 -5.56,5.85 -7.89,9.15 -2.87,4.05 -6.02,7.9 -8.86,11.97 -1.52,2.18 -3,4.41 -3.3,7.11 -0.11,0.96 -1.78,5.83 0.55,8.1 2.74,2.68 5.82,5.2 9.81,4.65 3.52,-0.49 6.52,-2.91 9.07,-5.22 2.45,-2.23 -2.37,2.34 -6.39,7.9 -2.15,2.97 -3.98,6.18 -5.82,9.35 -1.99,3.43 -3.96,6.91 -5.56,10.55 -1.37,3.14 -1.93,6.76 -3.74,9.61 -1.47,2.32 -3.62,4.94 -2.93,7.88 0,0.02 0.01,0.03 0.01,0.05 0.07,0.57 0.26,1.12 0.62,1.63 0.16,0.23 0.34,0.44 0.55,0.65 1.11,1.36 2.71,2.31 4.07,3.49 0.43,0.37 0.88,0.72 1.35,1.02 -0.22,0.55 -0.42,1.11 -0.64,1.67 -2.04,5.11 -7.24,8.49 -7.95,14.23 -0.36,2.9 0.67,5.78 2.84,7.74 1.85,1.67 4.42,2.44 6.86,2.66 2.63,0.23 5.39,-0.06 7.87,-0.98 3.04,-1.12 5.78,-3.16 8.21,-5.25 1.01,-0.87 1.98,-1.79 2.93,-2.73 -0.63,1.16 -1.21,2.34 -1.82,3.52 -1.31,2.56 -2.63,5.1 -3.91,7.68 -2.82,5.68 -5.47,11.36 -7.03,17.53 -0.11,0.43 -0.57,6.31 1.3,8.63 1.91,2.37 4.88,3.9 7.83,4.45 3.01,0.56 6.15,-0.13 8.94,-1.28 10.26,-4.23 16.89,-13.58 23.68,-21.87 1.61,-1.97 3.2,-3.94 5.01,-5.61 2.03,-1.86 4.24,-3.5 6.31,-5.32 2.13,-1.88 3.88,-4.07 5.8,-6.16 0.04,-0.05 0.06,-0.07 0.08,-0.09 0.06,-0.06 0.12,-0.13 0.18,-0.19 0.19,-0.2 0.39,-0.39 0.58,-0.59 0.37,-0.37 0.76,-0.73 1.15,-1.07 0.75,-0.65 1.54,-1.26 2.36,-1.82 0.41,-0.28 0.82,-0.55 1.24,-0.81 0.08,-0.04 0.42,-0.25 0.49,-0.29 0.32,-0.19 0.63,-0.37 0.95,-0.55 1.28,-0.73 2.57,-1.43 3.79,-2.26 2.08,-1.42 4.16,-3.25 6.18,-4.49 2.48,-1.52 5.37,-2.32 8.15,-3.1 2.7,-0.76 5.43,-1.49 8.03,-2.55 3.03,-1.24 6.01,-2.61 9.06,-3.83 1.72,-0.69 3.44,-1.4 5.2,-1.96 0.21,-0.06 0.41,-0.13 0.62,-0.2 0.07,-0.02 0.39,-0.12 0.4,-0.12 0.23,-0.07 0.46,-0.13 0.69,-0.19 0.01,0 0.07,-0.02 0.11,-0.03 0.08,-0.02 0.19,-0.05 0.21,-0.05 0.15,-0.04 0.3,-0.07 0.44,-0.1 0.08,-0.02 0.46,-0.09 0.62,-0.12 0.07,0 0.23,-0.02 0.27,-0.02 0.06,0 0.12,-0.01 0.19,-0.01 0,0 0,0 0,0 0.01,0 0.01,0 0.03,0 0.19,0 0.37,0 0.55,-0.02 0,0 -0.01,0 -0.01,0 0,0 0.05,0 0.09,0 -0.15,0.26 -0.22,0.57 -0.17,0.91 0.7,4.13 -0.61,8.44 -2.27,12.19 -1.78,4.04 -4.28,7.71 -6.75,11.35 -2.7,3.96 -5.19,8.02 -7.24,12.36 -2.04,4.31 -3.71,8.79 -5.11,13.35 -1.49,4.87 -2.88,9.86 -3.1,14.97 -0.1,2.44 0.05,4.81 0.94,7.11 0.5,1.28 1.23,2.46 1.99,3.61 0.63,1.8 1.51,3.52 2.75,4.94 0.14,0.32 0.27,0.65 0.39,0.98 0.57,1.58 1.13,3.12 2.07,4.52 2.46,3.69 7.65,4.55 11.64,3.32 4.81,-1.48 7.56,-5.8 9.3,-10.25 0.87,-2.22 2.83,-8.22 3.01,-8.87 1.48,-5.36 4.2,-10.23 6.88,-15.06 2.59,-4.68 4.81,-9.48 6.92,-14.39 2.4,-5.56 5.09,-10.79 8.68,-15.69 3.12,-4.25 6.59,-8.22 9.89,-12.33 0.44,-0.54 0.86,-1.09 1.27,-1.64 2.28,-2.4 4.29,-5.01 5.52,-8.11 0.12,-0.31 0.23,-0.61 0.34,-0.92 3.23,-5.75 5.82,-11.8 8.43,-18.14 4.59,-11.19 8.2,-22.4 9.01,-34.53 0.44,-6.69 0.06,-13.88 1.45,-20.45 0.68,-3.21 2.43,-5.98 4.07,-8.79 0.02,-0.02 0.05,-0.03 0.07,-0.06 11.36,-10.48 21.32,-22.24 33.72,-31.61 13.4,-10.13 28.97,-17.47 43.84,-25.18 30.87,-16 62.09,-31.54 94.49,-44.23 18.02,-7.05 35.69,-14.38 52.97,-23.12 1.18,-0.65 0.45,-2.27 -0.73,-1.86 z M 79.42,278.08 c -3.62,-1.89 0.15,-6.96 2.65,-10.37 1.98,0.4 2.15,3.14 1.55,4.89 -0.78,2.25 -2.51,3.88 -4.19,5.49 0,0 0,-0.01 -0.01,-0.01 z m -3.4,50.19 c -0.38,-0.2 -0.75,-0.41 -1.13,-0.64 -0.38,-0.23 -0.71,-0.45 -0.98,-0.67 -0.54,-0.55 -0.9,-1.18 -0.9,-2.04 0.01,-0.97 0.74,-2.03 1.29,-2.89 0.76,-1.18 1.59,-2.32 2.24,-3.57 0.33,-0.65 0.61,-1.33 0.86,-2.02 0.83,0.6 1.51,1.32 1.72,2.4 0.25,1.3 -0.11,2.64 -0.55,3.87 -0.69,1.9 -1.78,3.68 -2.55,5.56 z m -1.48,23.77 c -0.07,0.18 -0.14,0.36 -0.22,0.54 -0.03,0.06 -0.06,0.12 -0.08,0.17 -0.01,0.02 -0.04,0.07 -0.06,0.09 -0.01,0.02 -0.01,0.04 -0.02,0.06 -0.84,-0.43 -1.55,-1.39 -1.82,-2.05 -0.45,-1.09 -0.44,-2.19 -0.2,-3.31 0.31,-1.39 1.07,-2.65 1.88,-3.86 0.43,-0.61 0.88,-1.21 1.32,-1.81 0.1,-0.01 0.2,-0.02 0.3,-0.02 0.32,0.02 0.51,0.13 0.67,0.3 0.17,0.19 0.28,0.5 0.33,0.79 0.08,0.43 0.09,0.86 0.06,1.29 -0.13,2.2 -0.81,4.39 -1.59,6.44 -0.18,0.47 -0.39,0.91 -0.57,1.37 z m 16.33,34.26 c -0.21,-0.12 -0.42,-0.25 -0.62,-0.39 -0.48,-0.33 -0.95,-0.7 -1.24,-1.03 -0.17,-0.19 -0.32,-0.39 -0.48,-0.59 0,-0.01 -0.03,-0.05 -0.06,-0.1 -0.04,-0.09 -0.16,-0.32 -0.17,-0.35 -0.04,-0.1 -0.09,-0.27 -0.11,-0.34 -0.03,-0.19 -0.06,-0.38 -0.09,-0.57 0,-0.01 0,-0.01 0,-0.01 0,-0.07 0,-0.14 0.01,-0.21 0.02,-0.25 0.06,-0.49 0.1,-0.74 0.01,-0.04 0.01,-0.06 0.01,-0.09 0.03,-0.1 0.06,-0.2 0.09,-0.3 0.07,-0.22 0.15,-0.44 0.23,-0.66 0.2,-0.54 0.44,-1.06 0.69,-1.58 0.39,-0.81 0.81,-1.61 1.22,-2.42 0.76,1.3 1.22,2.7 1.18,4.26 -0.06,1.73 -0.51,3.41 -0.76,5.12 z m 105.85,10.33 c -0.12,0.6 -1.81,6.34 -2.6,8.7 -0.12,0.36 -2.66,5.9 -4.44,6.86 -1.57,0.84 -3.26,1.17 -5.08,0.78 -0.81,-0.17 -1.57,-0.49 -2.02,-0.81 -0.12,-0.08 -0.23,-0.18 -0.35,-0.26 -0.05,-0.04 -0.08,-0.05 -0.11,-0.07 -0.02,-0.02 -0.04,-0.05 -0.07,-0.09 -0.24,-0.27 -0.46,-0.55 -0.67,-0.85 0,-0.02 -0.31,-0.54 -0.36,-0.64 -0.15,-0.31 -0.29,-0.62 -0.41,-0.94 -0.31,-0.76 -0.57,-1.55 -0.85,-2.32 -0.25,-0.67 -0.53,-1.33 -0.84,-1.99 0.88,-4.57 1.98,-10.17 6.05,-12.8 7.28,-4.71 12.06,1.68 12.41,1.76 -0.26,0.88 -0.48,1.76 -0.66,2.67 z" />
			<path
   id="path1058"
   d="m 234.1,255.47 c 1.03,-1.62 2.42,-2.93 3.97,-4.04 3.34,-2.39 7.26,-3.86 10.92,-5.68 4.22,-2.1 8.33,-4.69 10.71,-8.89 0.18,-0.32 0.13,-0.65 -0.03,-0.9 -1.34,1.35 -2.76,2.5 -4.24,3.5 -4.99,4.61 -12.35,6.34 -17.99,10.04 -3.63,2.38 -6.17,5.69 -6.92,10.03 -0.47,2.72 -0.37,5.47 -0.31,8.21 0.06,2.95 0.22,5.89 0.17,8.84 -0.01,0.69 -0.04,1.39 -0.06,2.08 0.59,5.74 0.95,11.5 0.79,17.19 0.78,-5.37 1.41,-10.77 1.54,-16.2 0.08,-3.13 0.02,-6.26 -0.17,-9.38 -0.16,-2.66 -0.38,-5.3 -0.21,-7.97 0.15,-2.38 0.54,-4.78 1.83,-6.83 z" />
			<path
   id="path1060"
   d="m 91.2,296.59 c -0.02,-0.02 -0.25,-0.08 -1.14,-1.63 -0.27,0.24 0.52,1.67 0.89,1.98 0.65,0.57 1.83,0.69 1.98,0.42 -1.09,-0.27 -1.54,-0.6 -1.73,-0.77 z" />
		</g>
		<path
   id="path1064"
   d="M 79.24,335.58" />
		<path
   id="path1066"
   d="M 91.84,300.83" />
		<path
   id="path1068"
   d="M 91.84,300.83" />
		<path
   id="path1070"
   d="M 91.94,301.06" />
		<path
   id="path1072"
   d="M 98.01,254.49" />
		<path
   style="fill:#969798;stroke:#000000;stroke-width:2.22079992;stroke-miterlimit:10"
   id="path1074"
   d="m 282.03,183.31 c 0,0 24.47,-17.82 44.69,-35.16 20.23,-17.34 30.34,-30.34 68.39,-41.9 38.05,-11.56 48.16,-12.04 48.16,-12.04 0,0 -61.12,31.19 -80.39,41.31 -19.26,10.11 -35.48,27.08 -80.85,47.79 z"
   class="st0" />
	</g>
	<path
   style="fill:#969798;stroke:#000000;stroke-width:2.22079992;stroke-miterlimit:10"
   id="path1078"
   d="m 543.41,333.43 161.24,-89.1 c 0,0 -61.12,32.67 -80.39,42.79 -19.26,10.11 -35.48,25.6 -80.85,46.31 z"
   class="st0" />
	<g
   id="g1084">
		<path
   style="fill:#ffffff"
   id="path1080"
   d="m 566.32,357.95 c -8.47,-22.71 -21.86,-43.92 -38.71,-61.34 l 4.79,-4.63 c 17.48,18.08 31.37,40.08 40.16,63.65 z"
   class="st1" />
		<path
   id="path1082"
   d="m 565.89,358.9 -0.26,-0.69 c -8.44,-22.61 -21.77,-43.74 -38.55,-61.09 l -0.51,-0.53 5.85,-5.66 0.51,0.53 c 17.55,18.15 31.5,40.24 40.32,63.9 l 0.26,0.69 z m -37.23,-62.27 c 16.51,17.22 29.66,38.06 38.1,60.37 l 4.86,-1.81 c -8.68,-22.98 -22.22,-44.44 -39.23,-62.16 z" />
	</g>
	<g
   id="g1090">
		<path
   style="fill:#ffffff"
   id="path1086"
   d="m 580.12,351 c -10.33,-23.07 -24.23,-44.21 -41.3,-62.84 l 4.91,-4.5 c 17.56,19.16 31.85,40.9 42.47,64.62 z"
   class="st1" />
		<path
   id="path1088"
   d="m 579.75,351.98 -0.3,-0.68 c -10.3,-22.99 -24.15,-44.07 -41.17,-62.64 l -0.5,-0.55 6,-5.5 0.5,0.55 c 17.61,19.22 31.94,41.02 42.6,64.82 l 0.3,0.68 z m -39.88,-63.77 c 16.73,18.37 30.4,39.16 40.63,61.82 l 4.73,-2.12 C 574.77,324.75 560.8,303.5 543.69,284.71 Z" />
	</g>
	<g
   id="g1096">
		<path
   style="fill:#ffffff"
   id="path1092"
   d="M 592.79,343.8 C 581.83,321.02 568.04,299.64 551.8,280.26 l 5.11,-4.28 c 16.59,19.8 30.68,41.65 41.88,64.93 z"
   class="st1" />
		<path
   id="path1094"
   d="m 592.45,344.78 -0.32,-0.67 C 581.2,321.38 567.44,300.06 551.24,280.72 l -0.48,-0.57 6.24,-5.23 0.48,0.57 c 16.63,19.85 30.76,41.75 41.98,65.09 l 0.32,0.67 z m -39.6,-64.43 c 15.91,19.09 29.46,40.1 40.29,62.46 l 4.67,-2.25 c -11.01,-22.75 -24.8,-44.13 -40.99,-63.54 z" />
	</g>
	<g
   id="g1102">
		<path
   style="fill:#ffffff"
   id="path1098"
   d="m 604.94,335.52 c -9.32,-23.69 -22.61,-45.37 -39.48,-64.44 l 4.99,-4.41 c 17.39,19.65 31.08,42 40.69,66.42 z"
   class="st1" />
		<path
   id="path1100"
   d="m 604.52,336.48 -0.27,-0.69 c -9.29,-23.61 -22.53,-45.22 -39.34,-64.22 l -0.49,-0.55 6.1,-5.4 0.49,0.55 c 17.44,19.72 31.18,42.14 40.82,66.64 l 0.27,0.69 z m -38.01,-65.33 c 16.53,18.82 29.6,40.14 38.85,63.42 l 4.82,-1.9 c -9.47,-23.84 -22.86,-45.68 -39.79,-64.95 z" />
	</g>
	<g
   id="g1108">
		<path
   style="fill:#ffffff"
   id="path1104"
   d="M 621.01,330.31 C 610.19,306.04 595.69,283.72 577.9,263.98 l 4.95,-4.46 c 18.26,20.26 33.14,43.17 44.24,68.08 z"
   class="st1" />
		<path
   id="path1106"
   d="m 620.63,331.28 -0.3,-0.68 c -10.78,-24.2 -25.25,-46.45 -42.98,-66.14 l -0.5,-0.55 6.05,-5.45 0.5,0.55 c 18.31,20.32 33.24,43.29 44.37,68.27 l 0.3,0.68 z m -41.68,-67.25 c 17.45,19.48 31.72,41.44 42.44,65.3 l 4.73,-2.11 C 615.18,302.87 600.61,280.45 582.8,260.56 Z" />
	</g>
	<g
   id="g1114">
		<path
   style="fill:#ffffff"
   id="path1110"
   d="M 633.77,323.68 C 622.81,299.2 608.43,276.45 591.03,256.04 l 5.07,-4.32 c 17.82,20.89 32.54,44.18 43.76,69.24 z"
   class="st1" />
		<path
   id="path1112"
   d="m 633.4,324.66 -0.3,-0.68 c -10.93,-24.41 -25.27,-47.11 -42.63,-67.46 l -0.48,-0.56 6.2,-5.28 0.48,0.56 c 17.86,20.94 32.62,44.3 43.87,69.42 l 0.3,0.68 z m -41.33,-68.54 c 17.08,20.13 31.22,42.52 42.07,66.58 l 4.73,-2.12 C 627.82,296.07 613.4,273.26 596.01,252.76 Z" />
	</g>
	<g
   id="g1120">
		<path
   style="fill:#ffffff"
   id="path1116"
   d="m 644.85,318.27 c -9,-25.43 -23.42,-49.35 -41.7,-69.18 l 4.9,-4.51 c 18.88,20.49 33.78,45.21 43.08,71.47 z"
   class="st1" />
		<path
   id="path1118"
   d="m 644.4,319.22 -0.25,-0.7 c -8.97,-25.33 -23.33,-49.17 -41.54,-68.93 l -0.5,-0.54 5.99,-5.52 0.5,0.54 c 18.95,20.56 33.9,45.37 43.23,71.73 l 0.25,0.7 z m -40.2,-70.09 c 17.94,19.62 32.13,43.17 41.1,68.19 l 4.88,-1.73 c -9.2,-25.68 -23.77,-49.85 -42.17,-69.98 z" />
	</g>
	<g
   id="g1126">
		<path
   style="fill:#ffffff"
   id="path1122"
   d="M 657.03,312.45 C 646,286.9 632.14,262.5 615.83,239.95 l 5.4,-3.9 c 16.59,22.95 30.69,47.76 41.91,73.76 z"
   class="st1" />
		<path
   id="path1124"
   d="m 656.64,313.43 -0.29,-0.68 c -11.01,-25.5 -24.84,-49.85 -41.12,-72.36 l -0.43,-0.6 6.6,-4.77 0.43,0.6 c 16.62,22.99 30.75,47.86 41.99,73.9 l 0.29,0.68 z m -39.78,-73.31 c 16.01,22.23 29.65,46.23 40.55,71.36 l 4.76,-2.05 c -11.05,-25.48 -24.88,-49.81 -41.11,-72.34 z" />
	</g>
	<g
   id="g1132">
		<path
   style="fill:#ffffff"
   id="path1128"
   d="m 667.33,305.81 c -6.4,-21.53 -15.97,-41.92 -28.44,-60.61 l -5.25,-6.86 5.29,-4.05 5.44,7.12 c 12.87,19.27 22.74,40.3 29.34,62.5 z"
   class="st1" />
		<path
   id="path1130"
   d="m 666.83,306.73 -0.21,-0.71 c -6.38,-21.46 -15.92,-41.79 -28.34,-60.41 l -5.67,-7.41 6.46,-4.95 5.9,7.71 c 12.94,19.37 22.84,40.46 29.46,62.74 l 0.21,0.71 z m -32.15,-68.25 4.8,6.27 c 12.4,18.58 21.92,38.8 28.35,60.14 l 4.97,-1.48 c -6.58,-21.87 -16.35,-42.59 -29.04,-61.59 l -4.97,-6.5 z" />
	</g>
	<g
   id="g1138">
		<path
   style="fill:#ffffff"
   id="path1134"
   d="m 678.41,300.41 c -5.61,-25.7 -15.47,-50.07 -29.31,-72.44 l 5.66,-3.51 c 14.24,23.01 24.39,48.09 30.16,74.53 z"
   class="st1" />
		<path
   id="path1136"
   d="m 677.84,301.29 -0.16,-0.72 c -5.59,-25.62 -15.42,-49.91 -29.22,-72.21 l -0.39,-0.63 6.92,-4.29 0.39,0.63 c 14.29,23.09 24.47,48.24 30.25,74.76 l 0.16,0.72 z m -27.73,-73.08 c 13.56,22.06 23.26,46.05 28.86,71.32 l 5.06,-1.1 c -5.72,-25.85 -15.65,-50.38 -29.52,-72.94 z" />
	</g>
	<g
   id="g1144">
		<path
   style="fill:#ffffff"
   id="path1140"
   d="m 692.64,296.35 c -6.28,-26.65 -16.52,-52.12 -30.42,-75.7 l 5.74,-3.38 c 14.24,24.16 24.72,50.26 31.16,77.56 z"
   class="st1" />
		<path
   id="path1142"
   d="m 692.09,297.24 -0.17,-0.72 c -6.27,-26.57 -16.47,-51.97 -30.33,-75.5 l -0.38,-0.64 7.02,-4.13 0.38,0.64 c 14.28,24.23 24.79,50.39 31.24,77.76 l 0.17,0.72 z m -28.86,-76.33 c 13.62,23.26 23.69,48.33 29.95,74.55 l 5.04,-1.19 c -6.38,-26.72 -16.65,-52.29 -30.53,-75.99 z" />
	</g>
	<g
   id="g1150">
		<path
   style="fill:#ffffff"
   id="path1146"
   d="m 701.96,291.61 c -4.78,-21.36 -12.11,-42.15 -21.8,-61.78 l -5.1,-9.14 5.82,-3.24 5.21,9.36 c 9.94,20.13 17.47,41.44 22.36,63.35 z"
   class="st1" />
		<path
   id="path1148"
   d="m 701.39,292.49 -0.16,-0.72 c -4.76,-21.31 -12.08,-42.03 -21.74,-61.61 l -5.44,-9.75 7.11,-3.97 5.57,10 c 9.98,20.21 17.53,41.58 22.44,63.54 l 0.16,0.72 z m -25.32,-71.51 4.74,8.49 c 9.62,19.49 16.92,40.08 21.71,61.25 l 5.06,-1.13 c -4.89,-21.6 -12.34,-42.61 -22.14,-62.46 l -4.84,-8.68 z" />
	</g>
	<g
   id="g1168">
		<path
   id="path1152"
   d="m 406.4,467.85 c 1.38,-2.53 3.78,-4.18 5.95,-5.98 1.12,-0.93 2.18,-1.92 3.03,-3.1 1.04,-1.43 1.85,-3 2.71,-4.54 0.32,-0.57 -2.81,2.3 -3.91,3.68 -0.93,1.16 -2.05,2.13 -3.21,3.05 -2.29,1.8 -4.98,7.63 -4.57,6.89 z" />
		<path
   id="path1154"
   d="m 365.51,503.58 c 0.49,1.24 1.09,2.43 1.85,3.53 0.73,1.05 1.66,2.17 2.8,2.8 0.6,0.35 -4.9,-6.95 -4.65,-6.33 z" />
		<path
   id="path1156"
   d="m 374.03,505.29 c 0.61,1.34 1.08,1.81 1.49,4.39 0.42,-1.58 -0.3,-3.37 -0.98,-4.78 -0.71,-1.47 -1.62,-2.88 -2.75,-4.06 -0.4,-0.4 1.62,3.11 2.24,4.45 z" />
		<path
   id="path1158"
   d="m 394.1,442.97 c -1.75,0.78 -3.59,1.33 -5.42,1.91 -0.94,0.29 -1.88,0.59 -2.82,0.91 -0.94,0.33 -2.13,0.63 -2.9,1.28 -0.43,0.36 5.65,-0.74 6.7,-1.07 1.92,-0.59 3.85,-1.18 5.66,-2.05 1.69,-0.82 3.29,-1.93 4.47,-3.41 1.42,-1.77 2.19,-3.94 2.6,-6.15 0.09,-0.51 -2.29,3.92 -3.8,5.54 -1.25,1.35 -2.82,2.3 -4.49,3.04 z" />
		<path
   id="path1160"
   d="m 413.81,410.65 c -5.97,3.93 -17.02,13.28 -16.54,13.04 6.44,-3.19 17.08,-13.4 16.54,-13.04 z" />
		<path
   id="path1162"
   d="m 749.92,271.95 c -8.25,2.86 -16.29,6.44 -24.4,9.69 -8.03,3.23 -16.17,6.1 -24.29,9.09 -16.47,6.05 -32.59,12.79 -48.5,20.21 -16.28,7.59 -32.48,15.36 -48.5,23.5 -14.96,7.6 -30.56,14.89 -44.4,24.44 -14.05,9.7 -27.27,22.17 -37.37,35.94 -0.2,0.28 -0.32,0.57 -0.37,0.86 -1.52,1.96 -2.94,3.99 -4.09,6.16 -2.56,4.85 -3.1,10.37 -3.49,15.77 -0.44,6.13 -0.65,12.3 -1.65,18.38 -1.04,6.3 -3.05,12.46 -5.17,18.47 -3.95,11.16 -8.29,22.02 -15.62,31.42 -6.68,8.57 -13.81,16.44 -18.41,26.4 -0.53,1.14 -1.04,2.28 -1.55,3.43 -2.91,-0.95 -5.92,-1.52 -8.97,-1.75 -3.52,-0.27 -7.12,-0.17 -10.54,0.75 -0.65,0.18 13.09,-0.04 19.16,1.78 -0.58,1.3 -1.15,2.59 -1.73,3.88 -1.21,-0.25 -2.41,-0.56 -3.61,-0.82 -0.47,-0.1 1.63,1.17 3.19,1.75 -0.59,1.31 -1.19,2.62 -1.81,3.91 -8.62,1.19 -16.38,-2.55 -15.77,-2.12 4.39,3.02 9.94,3.33 15.21,3.29 -0.41,0.84 -0.84,1.68 -1.28,2.52 -1.54,-0.06 -3.12,0.03 -4.62,0 -2.49,-0.06 -8.29,-0.57 -7.59,-0.24 2.28,1.1 4.82,1.45 7.33,1.51 1.23,0.03 2.45,0 3.68,-0.01 0.18,0 0.36,0.01 0.53,0.01 -0.1,0.19 -0.2,0.39 -0.31,0.58 -1.92,3.47 -3.88,6.94 -5.29,10.62 -2.76,-3.58 -8.37,-3.86 -12.3,-2.14 -5.12,2.25 -7.36,7.91 -8.6,13.01 -0.01,-0.01 -0.01,-0.02 -0.02,-0.03 -0.28,-0.46 -0.56,-0.91 -0.84,-1.36 -0.01,-0.02 -0.22,-0.36 -0.24,-0.39 -0.07,-0.12 -0.14,-0.23 -0.21,-0.35 -0.43,-0.75 -0.83,-1.51 -1.12,-2.32 -0.03,-0.1 -0.07,-0.19 -0.1,-0.29 0,-0.01 -0.12,-0.46 -0.13,-0.47 -0.1,-0.43 -0.17,-0.87 -0.22,-1.3 -0.13,-1.08 -0.1,-2.16 -0.03,-3.25 0.28,-4.68 1.53,-9.27 2.83,-13.76 1.3,-4.48 2.84,-8.88 4.83,-13.1 1.88,-4 4.19,-7.7 6.65,-11.36 2.02,-3.01 4.04,-6.07 5.71,-9.31 0.59,-0.85 1.16,-1.71 1.7,-2.6 2.38,-3.93 4.84,-9.28 3,-13.85 0.32,0.15 0.63,0.28 0.93,0.4 1.47,0.61 3.01,1.02 4.57,1.31 3.04,0.55 6.13,0.64 9.2,0.26 1.12,-0.14 -6.39,0.11 -12.85,-3.28 -0.9,-0.47 -1.83,-0.89 -2.75,-1.31 1.88,-0.41 3.73,-0.92 5.54,-1.56 3.08,-1.09 5.98,-2.56 8.68,-4.37 -2.19,0.61 -14.96,3.9 -21.72,4.47 -0.82,0.07 -1.63,0.2 -2.44,0.37 -0.8,0.17 -4.22,0.86 -5.13,1.05 -3.51,0.76 -6.83,2.3 -10.1,3.75 -1.61,0.71 -3.23,1.42 -4.87,2.06 -0.72,0.2 -1.44,0.4 -2.15,0.6 -0.14,0.04 -0.27,0.08 -0.41,0.12 1.85,-1.8 3.62,-3.69 5.31,-5.64 -1.33,0.87 -2.66,1.72 -4.02,2.51 -1.29,0.76 -6.35,4.31 -7.61,5.33 -0.61,0.28 -1.21,0.59 -1.79,0.94 -1.76,1.06 -3.37,2.31 -5,3.53 -4.11,2.15 -8.25,3.79 -11.29,7.59 -0.52,0.46 -1.02,0.94 -1.5,1.44 -1.78,1.85 -3.31,3.9 -5.18,5.62 -2.03,1.87 -4.26,3.5 -6.35,5.31 -4,3.46 -7.18,7.82 -10.52,11.89 -2.02,2.46 -3.97,4.78 -6.12,6.95 -2.59,2.22 -5.18,4.63 -8.01,6.54 -0.86,0.54 -1.74,1.05 -2.69,1.52 -2.32,1.14 -4.78,1.94 -7.33,1.55 -0.45,-0.07 -0.89,-0.2 -1.33,-0.36 0.59,-1.94 1.04,-4 0.96,-6.03 -0.08,-2.05 -2.18,-6.01 -2.27,-6.28 0.24,-0.85 0.44,-1.72 0.62,-2.58 0.03,0.25 0.1,0.49 0.18,0.72 0.23,0.64 0.61,1.24 1,1.79 0.43,0.6 0.91,1.16 1.4,1.71 0.47,0.52 2.19,1.45 2.19,1.45 0,0 -3.59,-3.15 -4.15,-7.84 -0.01,-0.12 0.02,-0.25 0.02,-0.37 0.05,-0.17 0.1,-0.34 0.16,-0.51 0.61,1.02 2.48,3.37 2.48,3.37 0,0 -1.2,-3.3 -1.99,-4.56 0.14,-0.29 0.29,-0.58 0.46,-0.87 0.18,-0.3 0.37,-0.6 0.56,-0.89 2.5,1.91 5.36,7.37 5.27,7.02 -0.42,-1.68 -1.04,-3.31 -1.94,-4.79 -0.72,-1.19 -1.57,-2.35 -2.57,-3.35 1.37,-1.92 2.89,-3.73 4.08,-5.77 0.59,-1 1.01,-2.05 1.38,-3.11 0.69,1.6 1.3,3.25 2.19,4.76 0.92,1.57 2.28,3.19 4.01,3.88 0.6,0.24 -3.32,-2.81 -5.46,-9.37 -0.06,-0.19 0.35,-2.59 0.84,-3.75 1.4,-3.28 3.74,-5.81 6.44,-8.09 8.54,-7.2 17.93,-15.39 21.92,-26.11 1.61,-2.63 3.18,-5.28 4.77,-7.93 0.93,-1.54 1.86,-3.08 2.79,-4.61 0.89,-1.48 1.98,-3 2.63,-4.61 0.32,-0.78 -6.6,8.57 -10.05,12.17 -0.24,0.25 -0.34,0.6 -0.51,0.9 -0.65,0.56 -1.31,1.11 -1.98,1.65 0,0 0,0 0,0 -0.05,-0.01 -0.11,0 -0.16,0.02 -0.08,0.02 -0.15,0.05 -0.22,0.11 -0.04,0.04 -0.07,0.08 -0.11,0.11 -0.04,0.05 -0.05,0.12 -0.07,0.18 -2.14,1.64 -13.78,11.56 -16.37,13.3 -2.28,1.53 -4.86,2.46 -6.73,4.52 -1.49,1.63 -2.51,3.63 -3.86,5.39 -3.16,4.12 -7.8,6.39 -11.1,10.5 -6.08,7.57 -12.73,3.88 -13.33,3.94 0.29,-0.5 0.52,-1.06 0.72,-1.59 0.45,-1.18 0.8,-2.39 1.07,-3.61 0.28,-1.25 0.48,-2.51 0.44,-3.79 -0.03,-0.91 -0.19,-1.96 -0.86,-2.63 -0.3,-0.31 -0.66,-0.47 -1.03,-0.54 0.84,-1.16 1.64,-2.34 2.28,-3.62 0.06,-0.11 0.1,-0.22 0.15,-0.33 0.27,0.4 0.57,0.79 0.91,1.14 0.8,0.82 1.72,1.54 2.77,2.02 -2.98,-2.97 -2.98,-4.44 -3.03,-4.55 0.51,-0.87 1.01,-1.74 1.49,-2.63 0.11,-0.2 0.32,-0.61 0.32,-0.61 0.01,0.01 1.83,0.62 4.61,3.2 -0.43,-0.46 -1.95,-2.67 -2.09,-2.84 -0.36,-0.44 -0.78,-0.83 -1.27,-1.11 -0.15,-0.09 -0.3,-0.16 -0.46,-0.23 0.11,-0.23 0.15,-0.5 0.12,-0.74 1.21,-2.41 2.27,-4.84 3.13,-7.44 0.01,-0.04 0.03,-0.08 0.04,-0.12 1.49,2.23 3.91,4.15 6.61,4.3 0.35,0.02 -4,-1.16 -6.12,-5.64 1.32,-3.3 3.16,-5.55 6.07,-8 5.82,-4.89 11.49,-9.94 17.28,-14.86 1.86,-1.58 3.74,-3.21 5.46,-4.97 0.73,-0.64 1.43,-1.3 2.11,-2.01 1.82,-1.91 3.17,-4.18 4.89,-6.16 3.44,-3.99 12.36,-10.51 11.78,-10.14 -4.3,2.79 -9.32,4.72 -12.93,8.48 -0.91,0.95 -1.61,2.05 -2.36,3.11 -0.76,1.08 -1.58,2.12 -2.4,3.16 -0.97,1.24 -2.04,2.4 -3.15,3.51 -0.52,0.33 -1.03,0.65 -1.56,0.95 -3.21,2.77 -6.73,5.27 -9.77,7.88 -3.96,3.4 -7.93,6.78 -11.91,10.16 -2.89,2.45 -4.79,4.91 -6.11,8.47 -1.07,2.88 -2.21,5.63 -3.51,8.33 -0.64,-0.11 -1.24,-0.3 -1.84,-0.53 1.15,-2.13 2.29,-4.31 2.88,-6.64 0.36,-1.43 0.52,-2.94 0.04,-4.37 -0.44,-1.3 -1.43,-2.34 -2.65,-2.94 0.04,-0.12 0.08,-0.25 0.12,-0.37 0,0 0,0 0,0 0.88,-2.14 1.72,-4.33 2.61,-6.52 0.01,0.03 0.01,0.06 0.02,0.08 0.39,0.72 0.84,1.4 1.45,1.96 0.62,0.57 1.38,0.92 2.21,1 0.32,0.03 0.66,-0.21 0.69,-0.55 0.02,-0.34 -0.74,-0.72 -0.84,-0.73 -0.01,0 0,0 -0.01,0 0,0 0,0 0,0 -0.04,-0.01 -0.08,-0.02 -0.11,-0.03 -0.16,-0.05 -0.32,-0.11 -0.47,-0.18 -0.04,-0.02 -0.08,-0.04 -0.12,-0.06 -0.01,0 -0.02,-0.01 -0.03,-0.01 0,0 0,0 0.01,0 -0.06,-0.02 -0.14,-0.08 -0.19,-0.12 -0.14,-0.09 -0.28,-0.2 -0.41,-0.31 -0.03,-0.02 -0.06,-0.05 -0.08,-0.07 -0.01,-0.01 0,0 -0.01,-0.01 0,0 0,0 -0.01,-0.01 -0.06,-0.06 -0.12,-0.12 -0.17,-0.18 -0.11,-0.12 -0.22,-0.25 -0.33,-0.39 -0.1,-0.13 -0.2,-0.27 -0.3,-0.41 -0.05,-0.07 -0.23,-0.37 -0.15,-0.24 -0.02,-0.04 -0.63,-0.99 -0.5,-1.3 0.29,-0.6 0.6,-1.19 0.9,-1.79 0.01,0.18 0.09,0.35 0.24,0.49 0.24,0.21 0.47,0.43 0.71,0.65 l -0.13,-0.12 c 0.53,0.5 1.05,1.01 1.64,1.44 0.27,0.2 0.65,0.15 0.87,-0.09 0.22,-0.23 0.25,-0.62 0.04,-0.87 -0.18,-0.21 -0.39,-0.4 -0.59,-0.6 -0.2,-0.19 -0.4,-0.38 -0.62,-0.55 -0.39,-0.29 -0.78,-0.58 -1.18,-0.86 -0.2,-0.14 -0.48,-0.15 -0.68,-0.03 1.24,-2.33 2.58,-4.62 3.95,-6.87 0.18,0.56 0.42,1.09 0.71,1.59 1.13,1.89 3.16,3.65 5.48,3.64 1.4,0 2.54,-0.72 3.28,-1.89 -4.77,2.88 -8.03,-2.93 -8.34,-4.76 -0.02,-0.13 -0.03,-0.25 -0.04,-0.38 0.28,-0.45 0.86,-1.33 0.88,-1.33 0.29,-0.37 1.11,-1.69 1.23,-1.99 2.67,-3.98 5.84,-7.57 9.3,-10.88 0.56,-0.36 1.13,-0.71 1.72,-1.02 3.64,-2.91 7.41,-5.68 11.17,-8.43 2.9,-2.11 11.82,-9.13 12.57,-10.14 0.54,-0.72 1.02,-1.46 1.49,-2.23 0.57,-0.84 1.06,-1.71 1.46,-2.61 0.83,-1.55 1.7,-3.05 3,-4.3 1.69,-1.63 3.77,-2.75 5.82,-3.86 0.29,-0.16 0.59,-0.32 0.89,-0.48 0.48,-0.61 0.95,-1.24 1.41,-1.87 0.17,-0.24 0.32,-0.48 0.47,-0.73 -1.25,0.88 -2.58,1.59 -4.05,2.22 -2.14,0.93 -4.24,1.8 -5.96,3.42 -1.7,1.61 -3.21,3.53 -4.57,5.43 -0.7,0.98 -1.35,1.99 -2.08,2.95 -0.25,0.33 -0.52,0.65 -0.8,0.97 -0.5,0.22 -1,0.41 -1.51,0.57 -0.11,-0.04 -0.23,-0.07 -0.35,-0.07 -3.72,-0.26 -7.4,0.99 -10.79,2.81 -0.75,0.31 -1.48,0.68 -2.18,1.12 -2.02,1.26 -4.04,2.82 -5.97,4.41 -2.12,1.67 -4.15,3.45 -6.1,5.31 -2.38,2.28 -4.82,4.85 -7.77,6.21 -0.39,0.18 -0.8,0.35 -1.21,0.48 -0.04,0.01 -0.08,0.02 -0.15,0.03 -0.22,0.05 -0.45,0.09 -0.67,0.13 -0.42,0.06 -0.59,0.06 -0.78,0.05 -0.15,-0.01 -0.3,-0.02 -0.45,-0.04 0,0 -0.39,-0.08 -0.42,-0.07 -0.93,-0.25 -1.76,-0.79 -2.51,-1.45 2.9,-2.09 5.56,-5.87 5.45,-9.3 -0.06,-1.91 -1.03,-4.27 -2.71,-4.94 0.12,-0.18 0.22,-0.34 0.31,-0.5 0.3,-0.53 0.6,-1.01 0.91,-1.48 0.61,-0.79 1.22,-1.57 1.83,-2.36 0.22,-0.24 0.44,-0.49 0.67,-0.72 0.07,0.15 0.14,0.3 0.21,0.45 0.29,0.57 2.44,3.4 4.64,4.08 0.29,0.09 -3.31,-2.36 -3.84,-5.5 0.42,-0.38 0.85,-0.76 1.33,-1.15 0.2,-0.16 0.38,-0.34 0.57,-0.5 0.07,0.14 2.55,1.44 2.33,1.13 -0.33,-0.46 -0.68,-0.91 -1.01,-1.37 -0.14,-0.19 -0.3,-0.38 -0.45,-0.57 1.05,-1.04 1.96,-2.17 2.83,-3.44 0.45,-0.66 0.89,-1.3 1.33,-1.92 3.02,6.28 7.19,3.27 6.46,3.25 -0.47,-0.01 -0.96,0.01 -1.42,-0.09 -2.87,-0.67 -3.91,-3.3 -4.2,-4.26 0.38,-0.46 1.27,-1.19 1.31,-1.12 0.72,1.11 3.15,3.11 3.32,2.93 0.16,-0.17 -1.81,-2.5 -2.56,-3.55 -0.05,-0.06 0.63,-0.75 1.1,-1.02 2.82,-1.61 5.87,-2.92 8.77,-4.39 1.89,-0.96 3.83,-1.9 5.76,-2.86 0.51,-0.18 1.02,-0.37 1.53,-0.54 2.4,-0.78 4.76,-1.45 6.95,-2.74 2.33,-1.38 4.38,-3.07 6.8,-4.26 2.58,-1.26 5.31,-2.18 7.96,-3.29 5.62,-2.36 10.36,-6.3 15.34,-9.72 5.25,-3.61 10.98,-6.45 16.57,-9.5 2.81,-1.53 5.72,-2.96 8.46,-4.63 2.5,-0.86 4.93,-1.93 7.25,-3.21 0.12,-0.06 0.22,-0.14 0.34,-0.2 12.78,-5.42 17.75,-16.89 18.23,-17.57 1.5,-2.14 2.5,-4.54 3.43,-6.96 0.42,-1.09 0.86,-2.14 1.36,-3.16 4.77,-6.37 11.12,-11.55 17.7,-16.2 3.28,-2.31 6.61,-4.55 9.97,-6.75 1.83,-1.05 3.68,-2.07 5.57,-3.09 3.5,-1.87 7.07,-3.61 10.54,-5.51 3.85,-2.11 7.6,-4.42 11.29,-6.81 7.28,-4.74 14.27,-9.9 21.16,-15.18 6.83,-5.22 13.66,-10.45 20.19,-16.04 6.62,-5.67 12.99,-11.64 19.14,-17.81 6.29,-6.31 12.41,-12.78 18.46,-19.32 2.54,-2.74 5.27,-5.47 7.3,-8.61 1.45,-2.24 2.77,-4.58 4.12,-6.87 0.72,-0.9 1.45,-1.8 2.17,-2.7 0.06,-0.07 0.09,-0.14 0.12,-0.21 0.1,-0.06 0.21,-0.11 0.32,-0.15 1.21,-0.43 0.63,-2.53 -0.64,-2.2 -1.12,0.3 -1.93,0.99 -2.78,1.76 -1.13,1.02 -2.05,2.1 -2.92,3.35 -1.73,2.48 -3.32,5.1 -5.39,7.31 -3,3.19 -6.19,6.19 -9.31,9.26 -3.14,3.09 -6.19,6.27 -9.31,9.39 -6.15,6.17 -12.42,12.22 -18.92,18.03 -6.48,5.8 -13.25,11.2 -20.14,16.5 -6.87,5.29 -13.78,10.55 -20.92,15.47 -6.94,4.79 -14,9.06 -21.5,12.93 -14.05,7.27 -28.18,15.52 -38.98,27.26 -2.7,2.93 -4.6,6.42 -6.33,9.99 -1.65,3.41 -2.92,6.47 -5.11,9.44 -0.47,0.63 -0.96,1.24 -1.48,1.82 -0.14,0.15 -0.27,0.3 -0.41,0.45 -0.03,0.03 -0.07,0.07 -0.12,0.12 -0.29,0.28 -0.57,0.57 -0.86,0.84 -0.02,0.01 -0.05,0.03 -0.07,0.04 -0.85,0.51 -1.78,1.17 -2.6,1.94 -0.55,0.36 -1.1,0.73 -1.63,1.12 -1.39,1.01 -2.73,2.04 -4.09,3.05 -0.03,0.06 -0.06,0.11 -0.09,0.17 0,0.01 0,0.02 0,0.03 -0.07,0.04 -0.13,0.08 -0.2,0.12 -1.57,0.91 -12.47,6.78 -13.4,7.26 -5.88,3.04 -11.88,6.03 -17.43,9.64 -2.58,1.68 -5.06,3.5 -7.55,5.3 -2.37,1.71 -4.57,3.35 -7.14,4.6 -2.58,1.26 -5.3,2.21 -7.92,3.39 -2.69,1.21 -5.03,2.79 -7.44,4.46 -0.29,0.2 -0.58,0.4 -0.88,0.59 -0.09,0.06 -0.18,0.11 -0.27,0.17 -0.01,0 -0.02,0.01 -0.02,0.01 -0.18,0.06 -0.36,0.14 -0.53,0.25 -0.29,0.18 -0.58,0.35 -0.87,0.52 -0.15,0.07 -0.29,0.15 -0.44,0.22 -0.95,0.44 -1.93,0.8 -2.91,1.13 -0.44,0.29 -0.88,0.58 -1.33,0.86 -2.27,0.89 -4.61,1.64 -6.86,2.44 -4.28,1.53 -8.56,3.21 -12.17,6.04 -3.21,2.52 -5.56,5.85 -7.89,9.15 -2.87,4.05 -6.02,7.9 -8.86,11.97 -1.52,2.18 -3,4.41 -3.3,7.11 -0.11,0.96 -1.78,5.83 0.55,8.1 2.74,2.68 5.82,5.2 9.81,4.65 3.52,-0.49 6.52,-2.91 9.07,-5.22 2.45,-2.23 -2.37,2.34 -6.39,7.9 -2.15,2.97 -3.98,6.18 -5.82,9.35 -1.99,3.43 -3.96,6.91 -5.56,10.55 -1.37,3.14 -1.93,6.76 -3.74,9.61 -1.47,2.32 -3.62,4.94 -2.93,7.88 0,0.02 0.01,0.03 0.01,0.05 0.07,0.57 0.26,1.12 0.62,1.63 0.16,0.23 0.34,0.44 0.55,0.65 1.11,1.36 2.71,2.31 4.07,3.49 0.43,0.37 0.88,0.72 1.35,1.02 -0.22,0.55 -0.42,1.11 -0.64,1.67 -2.04,5.11 -7.24,8.49 -7.95,14.23 -0.36,2.9 0.67,5.78 2.84,7.74 1.85,1.67 4.42,2.44 6.86,2.66 2.63,0.23 5.39,-0.06 7.87,-0.97 3.04,-1.12 5.78,-3.16 8.21,-5.25 1.01,-0.87 1.98,-1.79 2.93,-2.73 -0.63,1.16 -1.21,2.34 -1.82,3.52 -1.31,2.56 -2.63,5.1 -3.91,7.68 -2.82,5.68 -5.47,11.36 -7.03,17.53 -0.11,0.43 -0.57,6.31 1.3,8.63 1.91,2.37 4.88,3.9 7.83,4.45 3.01,0.56 6.15,-0.13 8.94,-1.28 10.26,-4.23 16.89,-13.58 23.68,-21.87 1.61,-1.97 3.2,-3.94 5.01,-5.61 2.03,-1.86 4.24,-3.5 6.31,-5.32 2.13,-1.88 3.88,-4.07 5.8,-6.16 0.04,-0.05 0.06,-0.07 0.08,-0.09 0.06,-0.06 0.12,-0.13 0.18,-0.19 0.19,-0.2 0.39,-0.39 0.58,-0.59 0.37,-0.37 0.76,-0.73 1.15,-1.07 0.75,-0.65 1.54,-1.26 2.36,-1.82 0.41,-0.28 0.82,-0.55 1.24,-0.81 0.08,-0.04 0.42,-0.25 0.49,-0.29 0.32,-0.19 0.63,-0.37 0.95,-0.55 1.28,-0.73 2.57,-1.43 3.79,-2.26 2.08,-1.42 4.16,-3.25 6.18,-4.49 2.48,-1.52 5.37,-2.32 8.15,-3.1 2.7,-0.76 5.43,-1.49 8.03,-2.55 3.03,-1.24 6.01,-2.61 9.06,-3.83 1.72,-0.69 3.44,-1.4 5.2,-1.96 0.21,-0.06 0.41,-0.13 0.62,-0.2 0.07,-0.02 0.39,-0.12 0.4,-0.12 0.23,-0.07 0.46,-0.13 0.69,-0.19 0.01,0 0.07,-0.02 0.11,-0.03 0.08,-0.02 0.19,-0.05 0.21,-0.05 0.15,-0.04 0.3,-0.07 0.44,-0.1 0.08,-0.02 0.46,-0.09 0.62,-0.12 0.07,0 0.23,-0.02 0.27,-0.02 0.06,0 0.12,-0.01 0.19,-0.01 0,0 0,0 0,0 0.01,0 0.01,0 0.03,0 0.19,0 0.37,0 0.55,-0.02 0,0 -0.01,0 -0.01,0 0,0 0.05,0 0.09,0 -0.15,0.26 -0.22,0.57 -0.17,0.91 0.7,4.13 -0.61,8.44 -2.27,12.19 -1.78,4.04 -4.28,7.71 -6.75,11.35 -2.7,3.96 -5.19,8.02 -7.24,12.36 -2.04,4.31 -3.71,8.79 -5.11,13.35 -1.49,4.87 -2.88,9.86 -3.1,14.97 -0.1,2.44 0.05,4.81 0.94,7.11 0.5,1.28 1.23,2.46 1.99,3.61 0.63,1.8 1.51,3.52 2.75,4.94 0.14,0.32 0.27,0.65 0.39,0.98 0.57,1.58 1.13,3.12 2.07,4.52 2.46,3.69 7.65,4.55 11.64,3.32 4.81,-1.48 7.56,-5.8 9.3,-10.25 0.87,-2.22 2.83,-8.22 3.01,-8.87 1.48,-5.36 4.2,-10.23 6.88,-15.06 2.59,-4.68 4.81,-9.48 6.92,-14.39 2.4,-5.56 5.09,-10.79 8.68,-15.69 3.12,-4.25 6.59,-8.22 9.89,-12.33 0.44,-0.54 0.86,-1.09 1.27,-1.64 2.28,-2.4 4.29,-5.01 5.52,-8.11 0.12,-0.31 0.23,-0.61 0.34,-0.92 3.23,-5.75 5.82,-11.8 8.43,-18.14 4.59,-11.19 8.2,-22.4 9.01,-34.53 0.44,-6.69 0.06,-13.88 1.45,-20.45 0.68,-3.21 2.43,-5.98 4.07,-8.79 0.02,-0.02 0.05,-0.03 0.07,-0.06 11.36,-10.48 21.32,-22.24 33.72,-31.61 13.4,-10.13 28.97,-17.47 43.84,-25.18 30.87,-16 62.09,-31.54 94.49,-44.23 18.02,-7.05 35.69,-14.38 52.97,-23.12 1.18,-0.66 0.44,-2.28 -0.73,-1.87 z M 340.81,428.2 c -3.62,-1.89 0.15,-6.96 2.65,-10.37 1.98,0.4 2.15,3.14 1.55,4.89 -0.78,2.25 -2.51,3.88 -4.19,5.49 0,0 -0.01,-0.01 -0.01,-0.01 z m -3.41,50.19 c -0.38,-0.2 -0.75,-0.41 -1.13,-0.64 -0.38,-0.23 -0.71,-0.45 -0.98,-0.67 -0.54,-0.55 -0.9,-1.18 -0.9,-2.04 0.01,-0.97 0.74,-2.03 1.29,-2.89 0.76,-1.18 1.59,-2.32 2.24,-3.57 0.33,-0.65 0.61,-1.33 0.86,-2.02 0.83,0.6 1.51,1.32 1.72,2.4 0.25,1.3 -0.11,2.64 -0.55,3.87 -0.69,1.9 -1.77,3.68 -2.55,5.56 z m -1.48,23.77 c -0.07,0.18 -0.14,0.36 -0.22,0.54 -0.03,0.06 -0.06,0.12 -0.08,0.17 -0.01,0.02 -0.04,0.07 -0.06,0.09 -0.01,0.02 -0.01,0.04 -0.02,0.06 -0.84,-0.43 -1.55,-1.39 -1.82,-2.05 -0.45,-1.09 -0.44,-2.19 -0.2,-3.31 0.31,-1.39 1.07,-2.65 1.88,-3.86 0.43,-0.61 0.88,-1.21 1.32,-1.81 0.1,-0.01 0.2,-0.02 0.3,-0.02 0.32,0.02 0.51,0.13 0.67,0.3 0.17,0.19 0.28,0.5 0.33,0.79 0.08,0.43 0.09,0.86 0.06,1.29 -0.13,2.2 -0.81,4.39 -1.59,6.44 -0.18,0.47 -0.38,0.91 -0.57,1.37 z m 16.33,34.26 c -0.21,-0.12 -0.42,-0.25 -0.62,-0.39 -0.48,-0.33 -0.95,-0.7 -1.24,-1.03 -0.17,-0.19 -0.32,-0.39 -0.48,-0.59 0,-0.01 -0.03,-0.05 -0.06,-0.1 -0.04,-0.09 -0.16,-0.32 -0.17,-0.35 -0.04,-0.1 -0.09,-0.27 -0.11,-0.34 -0.03,-0.19 -0.06,-0.38 -0.09,-0.57 0,-0.01 0,-0.01 0,-0.01 0,-0.07 0,-0.14 0.01,-0.21 0.02,-0.25 0.06,-0.49 0.1,-0.74 0.01,-0.04 0.01,-0.06 0.01,-0.09 0.03,-0.1 0.06,-0.2 0.09,-0.3 0.07,-0.22 0.15,-0.44 0.23,-0.66 0.2,-0.54 0.44,-1.07 0.69,-1.58 0.39,-0.81 0.81,-1.61 1.22,-2.42 0.76,1.3 1.22,2.7 1.18,4.26 -0.06,1.73 -0.51,3.41 -0.76,5.12 z m 105.86,10.33 c -0.12,0.6 -1.81,6.34 -2.6,8.7 -0.12,0.36 -2.66,5.9 -4.44,6.86 -1.57,0.84 -3.26,1.17 -5.08,0.78 -0.81,-0.17 -1.57,-0.49 -2.02,-0.81 -0.12,-0.08 -0.23,-0.18 -0.35,-0.26 -0.05,-0.04 -0.08,-0.05 -0.11,-0.07 -0.02,-0.02 -0.04,-0.05 -0.07,-0.09 -0.24,-0.27 -0.46,-0.55 -0.67,-0.85 0,-0.02 -0.31,-0.54 -0.36,-0.64 -0.15,-0.31 -0.29,-0.62 -0.41,-0.94 -0.31,-0.76 -0.57,-1.55 -0.85,-2.32 -0.25,-0.67 -0.53,-1.33 -0.84,-1.99 0.88,-4.57 1.98,-10.17 6.05,-12.8 7.28,-4.71 12.06,1.68 12.41,1.76 -0.27,0.88 -0.49,1.76 -0.66,2.67 z" />
		<path
   id="path1164"
   d="m 495.49,405.59 c 1.02,-1.62 2.42,-2.93 3.97,-4.04 3.34,-2.39 7.26,-3.86 10.92,-5.68 4.22,-2.1 8.33,-4.69 10.71,-8.89 0.18,-0.32 0.13,-0.65 -0.03,-0.9 -1.34,1.35 -2.76,2.5 -4.24,3.5 -4.99,4.61 -12.35,6.34 -17.99,10.04 -3.63,2.38 -6.17,5.69 -6.92,10.03 -0.47,2.72 -0.37,5.47 -0.31,8.21 0.06,2.95 0.22,5.89 0.17,8.84 -0.01,0.69 -0.04,1.39 -0.06,2.08 0.59,5.74 0.95,11.5 0.79,17.19 0.78,-5.37 1.41,-10.77 1.54,-16.2 0.08,-3.13 0.02,-6.26 -0.17,-9.38 -0.16,-2.66 -0.38,-5.3 -0.21,-7.97 0.14,-2.38 0.53,-4.78 1.83,-6.83 z" />
		<path
   id="path1166"
   d="m 352.58,446.71 c -0.02,-0.02 -0.25,-0.08 -1.14,-1.63 -0.27,0.24 0.52,1.67 0.89,1.98 0.65,0.57 1.83,0.69 1.98,0.42 -1.08,-0.27 -1.54,-0.6 -1.73,-0.77 z" />
	</g>
	<path
   id="path1170"
   d="M 390.66,485.7" />
	<path
   id="path1172"
   d="M 403.27,450.95" />
	<path
   id="path1174"
   d="M 403.27,450.95" />
	<path
   id="path1176"
   d="M 403.36,451.18" />
	<path
   id="path1178"
   d="M 409.44,404.61" />
</g>
<g
   transform="translate(-67.719519,-47.80498)"
   id="Layer_3">
</g>
</svg>